<svg width="20" height="20" viewBox="0 0 20 20" fill="none" xmlns="http://www.w3.org/2000/svg">
<g id="bluetooth">
<g id="Frame">
<path id="Vector 39" d="M6 13.125L15 6.25L10.1538 2.5V17.5L15 13.75L6 6.25" stroke="black"/>
</g>
</g>
</svg>
