<svg width="20" height="20" viewBox="0 0 20 20" fill="none" xmlns="http://www.w3.org/2000/svg">
<g id="bug">
<g id="Frame">
<path id="Vector 17" d="M15.5 5.5L4.5 5.5C4.5 5.5 2.19711 16 10 16C17.8029 16 15.5 5.5 15.5 5.5Z" stroke="black"/>
<path id="Vector 20" d="M6.5 5.5C6.5 5.5 6.5 1.5 10 1.5C13.5 1.5 13.5 5.5 13.5 5.5" stroke="black"/>
<path id="Vector 23" d="M15.5 10.5H18.5" stroke="black"/>
<path id="Vector 26" d="M15.5 5.5L17.5 3.5" stroke="black"/>
<path id="Vector 27" d="M4.5 10.5L1.5 10.5" stroke="black"/>
<path id="Vector 28" d="M4.5 5.5L2.5 3.5" stroke="black"/>
<path id="Vector 29" d="M14.5 14.5L16.5 16.5" stroke="black"/>
<path id="Vector 30" d="M5.5 14.5L3.5 16.5" stroke="black"/>
<path id="Vector 31" d="M7.5 8.5L12.5 13.5" stroke="black"/>
<path id="Vector 32" d="M12.5 8.5L7.5 13.5" stroke="black"/>
</g>
</g>
</svg>
