<svg width="24" height="20" viewBox="0 0 24 20" fill="none" xmlns="http://www.w3.org/2000/svg">
<g id="folders">
<g id="Frame">
<path id="Vector 2.1" d="M5.5 6.5V18.5H22.5V8.5H13.5L12.5 6.5H5.5Z" stroke="black"/>
<path id="Vector 3" d="M4 13.5H1.5V1.5H8.5L9.5 3.5H18.5V7" stroke="black"/>
</g>
</g>
</svg>
