<svg width="20" height="20" viewBox="0 0 20 20" fill="none" xmlns="http://www.w3.org/2000/svg">
<g id="fullscreen">
<g id="Frame">
<path id="Vector" d="M2.5 12V17.5H8" stroke="black"/>
<path id="Vector_2" d="M12 17.5H17.5V12" stroke="black"/>
</g>
<g id="Frame_2">
<path id="Vector_3" d="M2.5 12V17.5H8" stroke="black"/>
<path id="Vector_4" d="M8 2.5L2.49999 2.5L2.49999 8" stroke="black"/>
<path id="Vector_5" d="M12 17.5H17.5V12" stroke="black"/>
<path id="Vector_6" d="M17.5 8V2.49999L12 2.49999" stroke="black"/>
</g>
</g>
</svg>
