<svg width="20" height="20" viewBox="0 0 20 20" fill="none" xmlns="http://www.w3.org/2000/svg">
<g id="gitlab">
<g id="Frame">
<g id="Group">
<path id="Vector" d="M4.30914 3.07258L1.61746 11.1476C1.54772 11.3568 1.62329 11.587 1.80346 11.7142L9.71166 17.2965C9.88452 17.4185 10.1155 17.4185 10.2883 17.2965L18.1965 11.7142C18.3767 11.587 18.4523 11.3568 18.3825 11.1476L15.6909 3.07258C15.6204 2.86128 15.3297 2.84062 15.2301 3.03983L12.6382 8.22361C12.5535 8.393 12.3804 8.5 12.191 8.5H7.80902C7.61963 8.5 7.4465 8.393 7.3618 8.22361L4.76992 3.03983C4.67031 2.84062 4.37957 2.86128 4.30914 3.07258Z" stroke="black"/>
<path id="Vector 2" d="M10 17L7.55278 8.67946C7.52149 8.57306 7.42384 8.5 7.31294 8.5H3.05399C2.83871 8.5 2.7241 8.75398 2.86653 8.9154L10 17ZM10 17L12.4472 8.67946C12.4785 8.57306 12.5762 8.5 12.6871 8.5H16.946C17.1613 8.5 17.2759 8.75398 17.1335 8.91541L10 17Z" stroke="black"/>
</g>
</g>
</g>
</svg>
