<svg width="20" height="20" viewBox="0 0 20 20" fill="none" xmlns="http://www.w3.org/2000/svg">
<g id="incognito">
<g id="Frame">
<path id="Vector" d="M9.9 10.8C12.3301 10.8 14.3 8.83005 14.3 6.4C14.3 3.96995 12.3301 2 9.9 2C7.46995 2 5.5 3.96995 5.5 6.4C5.5 8.83005 7.46995 10.8 9.9 10.8Z" stroke="black" stroke-width="1.1"/>
<path id="Vector_2" d="M1.5 19C2.3 14.5 5.8 11.2 10 11.2C14.2 11.2 17.7 14.6 18.5 19.2" stroke="black" stroke-width="1.1"/>
<g id="Vector_3">
<mask id="path-4-inside-1" fill="white">
<path d="M10.5 19C10.7761 19 11 18.7761 11 18.5C11 18.2239 10.7761 18 10.5 18C10.2239 18 10 18.2239 10 18.5C10 18.7761 10.2239 19 10.5 19Z"/>
</mask>
<path d="M10.5 19C10.7761 19 11 18.7761 11 18.5C11 18.2239 10.7761 18 10.5 18C10.2239 18 10 18.2239 10 18.5C10 18.7761 10.2239 19 10.5 19Z" fill="black"/>
<path d="M10 18.5C10 18.2239 10.2239 18 10.5 18V20C11.3284 20 12 19.3284 12 18.5H10ZM10.5 18C10.7761 18 11 18.2239 11 18.5H9C9 19.3284 9.67157 20 10.5 20V18ZM11 18.5C11 18.7761 10.7761 19 10.5 19V17C9.67157 17 9 17.6716 9 18.5H11ZM10.5 19C10.2239 19 10 18.7761 10 18.5H12C12 17.6716 11.3284 17 10.5 17V19Z" fill="black" mask="url(#path-4-inside-1)"/>
</g>
<path id="Vector_4" d="M9 14.4682C9 12.5246 12 12.5118 12 14.4234C12 15.0308 11.4 15.3377 11.0176 15.7213C10.7011 16.0346 10.5429 16.3479 10.5033 16.7762C10.4967 16.8593 10.4901 16.9297 10.4901 17" stroke="black" stroke-width="1.2"/>
</g>
</g>
</svg>
