<svg width="20" height="20" viewBox="0 0 20 20" fill="none" xmlns="http://www.w3.org/2000/svg">
<g id="npm">
<g id="Frame">
<g id="Group">
<path id="Vector" d="M3 17V3H17V17H3Z" stroke="black" stroke-width="2"/>
<rect id="Rectangle" x="11" y="7" width="2" height="10" fill="black"/>
</g>
</g>
</g>
</svg>
