<svg width="24" height="20" viewBox="0 0 24 20" fill="none" xmlns="http://www.w3.org/2000/svg">
<g id="usb">
<g id="Frame">
<rect id="Rectangle 3" x="15" y="13" width="3" height="3" fill="black"/>
<path id="Vector 9" d="M4.8 10H22" stroke="black"/>
<path id="Vector 10" d="M7.8 10L10.5 5.5H14" stroke="black"/>
<path id="Vector 11" d="M10.2 10L12.5 14.5H17.3" stroke="black"/>
<circle id="Ellipse 3" cx="3.5" cy="10" r="2.5" fill="black"/>
<circle id="Ellipse 4" cx="13.5" cy="5.5" r="1.5" fill="black"/>
<path id="Polygon 1" d="M23 10L19.25 13.0311V6.96891L23 10Z" fill="black"/>
</g>
</g>
</svg>
